<svg width="21" height="20" viewBox="0 0 21 20" fill="none" xmlns="http://www.w3.org/2000/svg">
<path d="M10.6272 4.87225C7.78953 4.87225 5.50063 7.16166 5.50063 10C5.50063 12.8383 7.78953 15.1277 10.6272 15.1277C13.4649 15.1277 15.7538 12.8383 15.7538 10C15.7538 7.16166 13.4649 4.87225 10.6272 4.87225ZM10.6272 13.3337C8.79343 13.3337 7.29427 11.8387 7.29427 10C7.29427 8.16133 8.78897 6.66629 10.6272 6.66629C12.4655 6.66629 13.9602 8.16133 13.9602 10C13.9602 11.8387 12.461 13.3337 10.6272 13.3337ZM17.1593 4.6625C17.1593 5.32746 16.6239 5.85853 15.9635 5.85853C15.2987 5.85853 14.7678 5.32299 14.7678 4.6625C14.7678 4.00201 15.3032 3.46647 15.9635 3.46647C16.6239 3.46647 17.1593 4.00201 17.1593 4.6625ZM20.5547 5.87638C20.4789 4.27424 20.113 2.85507 18.9396 1.68582C17.7706 0.516568 16.3517 0.150619 14.7499 0.070289C13.0991 -0.0234297 8.15093 -0.0234297 6.50007 0.070289C4.90275 0.146156 3.4839 0.512105 2.31044 1.68136C1.13699 2.85061 0.775586 4.26978 0.695273 5.87192C0.601576 7.52315 0.601576 12.4724 0.695273 14.1236C0.771124 15.7258 1.13699 17.1449 2.31044 18.3142C3.4839 19.4834 4.89828 19.8494 6.50007 19.9297C8.15093 20.0234 13.0991 20.0234 14.7499 19.9297C16.3517 19.8538 17.7706 19.4879 18.9396 18.3142C20.1085 17.1449 20.4744 15.7258 20.5547 14.1236C20.6484 12.4724 20.6484 7.52761 20.5547 5.87638ZM18.422 15.8953C18.074 16.7701 17.4002 17.4439 16.5213 17.7965C15.205 18.3186 12.0818 18.1981 10.6272 18.1981C9.17269 18.1981 6.04497 18.3142 4.7332 17.7965C3.85869 17.4484 3.18496 16.7745 2.83247 15.8953C2.31044 14.5788 2.43091 11.4549 2.43091 10C2.43091 8.54513 2.31491 5.41671 2.83247 4.10465C3.18049 3.22994 3.85422 2.55606 4.7332 2.2035C6.04943 1.68136 9.17269 1.80185 10.6272 1.80185C12.0818 1.80185 15.2095 1.68582 16.5213 2.2035C17.3958 2.5516 18.0695 3.22548 18.422 4.10465C18.944 5.42118 18.8235 8.54513 18.8235 10C18.8235 11.4549 18.944 14.5833 18.422 15.8953Z" fill="white"/>
</svg>
