<svg width="18" height="19" viewBox="0 0 18 19" fill="none" xmlns="http://www.w3.org/2000/svg">
<path d="M8.51011 -0.000244141C3.81761 -0.000244141 0 3.08664 0 6.88092C0 11.5897 7.61572 18.5026 7.93996 18.7945C8.24452 19.0688 8.77625 19.0683 9.08026 18.7945C9.40451 18.5026 17.0202 11.5897 17.0202 6.88092C17.0201 3.08664 13.2026 -0.000244141 8.51011 -0.000244141ZM8.51011 10.343C6.1492 10.343 4.22851 8.78994 4.22851 6.88092C4.22851 4.97191 6.14924 3.41885 8.51011 3.41885C10.871 3.41885 12.7917 4.97194 12.7917 6.88096C12.7917 8.78997 10.871 10.343 8.51011 10.343Z" fill="black"/>
</svg>
