<svg width="14" height="18" viewBox="0 0 14 18" fill="none" xmlns="http://www.w3.org/2000/svg">
<path d="M12.5395 10.0625L13.2006 6.9859H9.06673V4.98939C9.06673 4.1477 9.6442 3.32725 11.4957 3.32725H13.375V0.707852C13.375 0.707852 11.6695 0.5 10.0389 0.5C6.63455 0.5 4.40927 1.97355 4.40927 4.64109V6.9859H0.625V10.0625H4.40927V17.5H9.06673V10.0625H12.5395Z" fill="white"/>
</svg>
