<svg width="23" height="21" viewBox="0 0 23 21" fill="none" xmlns="http://www.w3.org/2000/svg">
<path d="M11.2469 10.2401C14.535 10.2401 17.2007 7.94779 17.2007 5.12007C17.2007 2.2923 16.3255 0 11.2469 0C6.16834 0 5.29297 2.2923 5.29297 5.12007C5.29297 7.94779 7.9587 10.2401 11.2469 10.2401Z" fill="white"/>
<path d="M0.0020752 18.0561C0.000278023 17.8865 -0.00151915 18.0083 0.0020752 18.0561V18.0561Z" fill="white"/>
<path d="M22.4932 18.1917C22.4964 18.1447 22.4943 17.8655 22.4932 18.1917V18.1917Z" fill="white"/>
<path d="M22.4809 17.8511C22.3707 12.9252 21.462 11.5215 14.5086 10.6331C14.5086 10.6331 13.5299 11.5161 11.2485 11.5161C8.96711 11.5161 7.98815 10.6331 7.98815 10.6331C1.11066 11.5119 0.146741 12.8947 0.0199977 17.6911C0.00960478 18.0827 0.00478858 18.1033 0.00292969 18.0578C0.00335216 18.143 0.00385895 18.3006 0.00385895 18.5754C0.00385895 18.5754 1.65929 20.9381 11.2485 20.9381C20.8375 20.9381 22.4931 18.5754 22.4931 18.5754C22.4931 18.3988 22.4933 18.2761 22.4935 18.1926C22.4917 18.2207 22.488 18.1662 22.4809 17.8511Z" fill="white"/>
</svg>
